<?xml version="1.0" encoding="UTF-8" standalone="no"?>
<svg
   xmlns:dc="http://purl.org/dc/elements/1.1/"
   xmlns:cc="http://creativecommons.org/ns#"
   xmlns:rdf="http://www.w3.org/1999/02/22-rdf-syntax-ns#"
   xmlns:svg="http://www.w3.org/2000/svg"
   xmlns="http://www.w3.org/2000/svg"
   xmlns:sodipodi="http://sodipodi.sourceforge.net/DTD/sodipodi-0.dtd"
   xmlns:inkscape="http://www.inkscape.org/namespaces/inkscape"
   width="46"
   height="22"
   version="1.1"
   id="svg20"
   sodipodi:docname="toggle-off.svg"
   inkscape:version="0.92.5 (2060ec1f9f, 2020-04-08)">
  <metadata
     id="metadata26">
    <rdf:RDF>
      <cc:Work
         rdf:about="">
        <dc:format>image/svg+xml</dc:format>
        <dc:type
           rdf:resource="http://purl.org/dc/dcmitype/StillImage" />
      </cc:Work>
    </rdf:RDF>
  </metadata>
  <defs
     id="defs24" />
  <sodipodi:namedview
     pagecolor="#ffffff"
     bordercolor="#666666"
     borderopacity="1"
     objecttolerance="10"
     gridtolerance="10"
     guidetolerance="10"
     inkscape:pageopacity="0"
     inkscape:pageshadow="2"
     inkscape:window-width="1920"
     inkscape:window-height="1028"
     id="namedview22"
     showgrid="false"
     inkscape:zoom="5.5217391"
     inkscape:cx="23.362205"
     inkscape:cy="11"
     inkscape:window-x="1920"
     inkscape:window-y="0"
     inkscape:window-maximized="1"
     inkscape:current-layer="g18" />
  <g
     transform="translate(0 -291.18)"
     id="g18">
    <rect
       style="marker:none;font-variant-east_asian:normal;stroke:#ababab;stroke-opacity:1;fill:#e1e1e1;fill-opacity:1;stroke-width:0.7;stroke-miterlimit:4;stroke-dasharray:none"
       width="44.446"
       height="20.911"
       x=".625"
       y="291.715"
       rx="10.455"
       ry="10.073"
       id="rect2"
       stroke-linejoin="round"
       stroke-linecap="round"
       stroke="#cdc7c2"
       fill="#e1dedb" />
    <rect
       ry="10.455"
       rx="10.455"
       y="291.715"
       x=".543"
       height="20.911"
       width="21.143"
       style="marker:none;font-variant-east_asian:normal;fill:#9e9c97;fill-opacity:1;stroke:#ababab;stroke-opacity:1"
       fill="#f8f7f7"
       stroke="#aa9f98"
       stroke-linecap="round"
       stroke-linejoin="round"
       id="rect4" />
    <g
       transform="matrix(.97148 0 0 1 1658.914 -2552.91)"
       stroke-width="1.015"
       stroke-linecap="round"
       stroke-linejoin="round"
       id="g10">
      <rect
         ry="13.17"
         rx="13.556"
         y="1234.681"
         x="-1242.732"
         height="26"
         width="49.409"
         style="marker:none"
         fill="#e1dedb"
         stroke="#cdc7c2"
         id="rect6" />
      <rect
         style="marker:none"
         width="26.763"
         height="26"
         x="-1242.732"
         y="1234.769"
         rx="13.511"
         ry="13.126"
         fill="#f8f7f7"
         stroke="#aa9f98"
         id="rect8" />
    </g>
    <g
       transform="matrix(.97148 0 0 1 1658.914 -2512.91)"
       stroke-width="1.015"
       stroke="#2b73cc"
       id="g16">
      <rect
         style="marker:none"
         width="49.409"
         height="26"
         x="-1242.732"
         y="1234.681"
         rx="13.556"
         ry="13.17"
         fill="#3081e3"
         id="rect12" />
      <rect
         ry="13.126"
         rx="13.511"
         y="1234.769"
         x="-1220.086"
         height="26"
         width="26.763"
         style="marker:none"
         fill="#f8f7f7"
         stroke-linecap="round"
         stroke-linejoin="round"
         id="rect14" />
    </g>
  </g>
</svg>
